…
-   Also the World fertility rate is converging towards 2.1.

It might not be wise to predict future but with current trend we say safely that world population which is driven by fertility rate is going towards a steady state.

### Answer 4:

In this plot we have attempted to show the trend of changing Fertility Rate from 1950 till present for the various regions of the world.

-   The data prepared for question no three is used here for the plot.

``` r
fertility_regional
```

    ## # A tibble: 342 x 3
    ## # Groups:   Year [57]
    ##     Year Region                     Ave_Fertility_Region
    ##    <dbl> <fct>                                     <dbl>
    ##  1  1960 Europe & Central Asia                      2.37
    ##  2  1960 Latin America & Caribbean                  6.07
    ##  3  1960 Middle East & North Africa                 6.93
    ##  4  1960 North America                              3.65
    ##  5  1960 South Asia                                 6.68
    ##  6  1960 Sub-Saharan Africa                         7.3 
    ##  7  1961 Europe & Central Asia                      2.38
    ##  8  1961 Latin America & Caribbean                  6.05
    ##  9  1961 Middle East & North Africa                 6.91
    ## 10  1961 North America                              3.62
    ## # ... with 332 more rows
…
